V1.0.0.0
Admin;Administrator;2A4409796B6F78797ED4DEF9BCC9A033;1;FALSE
Service;Service;C08298D42A35732CFFB7DF43771B7607;2;TRUE
Operator;Operator;3D94AB9540B025B07773DE7037F19837;3;FALSE
BAF5D0A69AA3294D191483759FB8597B