Id;Default
0;UNKNOWN
1;SPK105
2;SPK107 (SPK110)
3;SPK1xx.ETH
4;SPK1xx.DD
5;SPK2xx OLD
6;SPK207-03-CS [M02]
7;SPK207-03-CS-WEB [M02]
8;SPK207-04-CS [M02]
9;SPK207-04-CS-WEB [M02]
10;SPK210-03-CS [M02]
11;SPK210-03-CS-WEB [M02]
12;SPK210-04-CS [M02]
13;SPK210-04-CS-WEB [M02]
14;SPK207-03-CS [M04]
15;SPK207-03-CS-WEB [M04]
16;SPK207-04-CS [M04]
17;SPK207-04-CS-WEB [M04]
18;SPK210-03-CS [M04]
19;SPK210-03-CS-WEB [M04]
20;SPK210-04-CS [M04]
21;SPK210-04-CS-WEB [M04]
22;SPK1xx.ETH [M01]
41;PLC304
48;PLC304 [M02]
64;PLC304-WEB [M02]
80;PLC5684
96;PLC323-03-CS
97;PLC323-03-CS-WEB
98;PLC323-04-CS-WEB
99;PLC323-04-CS-WEB
;
